{
  "page": 1,
  "total_results": 10000,
  "total_pages": 500,
  "results": [
    {
      "popularity": 0,
      "id": 744791,
      "video": false,
      "vote_count": 0,
      "vote_average": 0,
      "title": "Waza no Tabibito",
      "release_date": "2011-07-02",
      "original_language": "ja",
      "original_title": "技の旅人",
      "genre_ids": [
        16,
        12,
        14
      ],
      "backdrop_path": null,
      "adult": false,
      "overview": "Humans acquired a perfect source of energy called \"Patia\", which brought self-sufficiency in food and fuel to all the people in the world. Trade and transportation began to diminish and finally the advance of the civilization terminated. Now the genetically modified plants cover almost all of the lands on earth and obstruct travelers.",
      "poster_path": "/fsW4Jjnm5aZMj9j1MQYaSL6FKCV.jpg"
    },
    {
      "popularity": 0,
      "vote_count": 0,
      "video": false,
      "poster_path": "/2pqcSMEeIs8lu3E0jjMPTo6WbyV.jpg",
      "id": 744701,
      "adult": false,
      "backdrop_path": "/b6rbaH5JfP6RtlAjh6xhMGp0Y1j.jpg",
      "original_language": "en",
      "original_title": "I Captured the King of the Leprechauns",
      "genre_ids": [
        12,
        18,
        10751
      ],
      "title": "I Captured the King of the Leprechauns",
      "vote_average": 0,
      "overview": "Behind the scenes of Darby O'Gill and the Little People.",
      "release_date": "1959-05-29"
    },
    {
      "popularity": 0,
      "vote_count": 0,
      "video": false,
      "poster_path": "/mi1UXrEIFGfKO9b5FseXMsY2DCH.jpg",
      "id": 744677,
      "adult": false,
      "backdrop_path": "/1Mawkt9kuwMyeOhsTkO0JjvpVgz.jpg",
      "original_language": "es",
      "original_title": "Stargate Origins: Catherine",
      "genre_ids": [
        12,
        878
      ],
      "title": "Stargate Origins: Catherine",
      "vote_average": 0,
      "overview": "",
      "release_date": "2019-05-15"
    },
    {
      "popularity": 0,
      "id": 709203,
      "video": false,
      "vote_count": 0,
      "vote_average": 0,
      "title": "Zack Snyder's Justice League",
      "release_date": "2021-01-01",
      "original_language": "en",
      "original_title": "Zack Snyder's Justice League",
      "genre_ids": [
        28,
        12,
        18,
        14
      ],
      "backdrop_path": "/453vLKtwRVb0MnxIu0n9suXnfUT.jpg",
      "adult": false,
      "overview": "Following the death of Superman in Batman v Superman: Dawn of Justice (2016), Batman and Wonder Woman recruit the Flash, Aquaman, and Cyborg to form the Justice League and protect the world from Steppenwolf and his army of Parademons, who seek the three Mother Boxes.",
      "poster_path": "/1HHoSA850z10yHlSIbl90zJPStM.jpg"
    },
    {
      "popularity": 0.6,
      "vote_count": 0,
      "video": false,
      "poster_path": "/87LxXxvEXduCTNZAqeqRTYzQ1hT.jpg",
      "id": 743424,
      "adult": false,
      "backdrop_path": "/9GASttfqxWYb8UjSax1Rv1LjJO4.jpg",
      "original_language": "tl",
      "original_title": "Cinemo",
      "genre_ids": [
        28,
        12,
        16,
        35,
        80,
        18,
        14,
        53,
        10751
      ],
      "title": "Cinemo",
      "vote_average": 0,
      "overview": "CineMo is an all-day male entertainment channel with main offering of action, comedy and also showcases other entertainment content from horror, sexy, and fantasy genres.",
      "release_date": ""
    },
    {
      "popularity": 0.6,
      "vote_count": 0,
      "video": false,
      "poster_path": "/nfzqbprUsOt7IXqpfufxsV8ZNzY.jpg",
      "id": 743242,
      "adult": false,
      "backdrop_path": null,
      "original_language": "ru",
      "original_title": "Отличница",
      "genre_ids": [
        12,
        80,
        18
      ],
      "title": "Neophyte",
      "vote_average": 0,
      "overview": "April 1958. Maria Krapivina, a graduate of the law faculty of Leningrad University, Department of criminal procedure and criminalistics, is assigned to the UGRO of the Central district police Department. Just a girl, an excellent student, the daughter of intelligent parents falls into a team consisting of rough and experienced operatives who have passed the war.  On the first day, Masha wants to quit. But she gets her hands on information about a traitor in the Department associated with a large and audacious gang. Masha decides that it is her duty to stay and uncover the \"mole\". And also to prove that it is worth something. Everyone falls under suspicion, including the head of the Opera Department of the Swedes ,the \"uncouth lout\", with whom Masha unexpectedly falls in love, and every day more and more..",
      "release_date": "2017-04-25"
    },
    {
      "popularity": 0.6,
      "id": 743234,
      "video": false,
      "vote_count": 0,
      "vote_average": 0,
      "title": "Jay Vejay",
      "release_date": "1977-01-24",
      "original_language": "hi",
      "original_title": "Jai-Vijay",
      "genre_ids": [
        28,
        12,
        18,
        36
      ],
      "backdrop_path": null,
      "adult": false,
      "overview": "When the rulers of Malwa, Pushpapuri and Paanchal find out that their respective kingdoms are under attack by Jung forces, they consolidate their wealth, hide it underground, surrounded by 3 statutes of Hindu Deities, hide it's location in 3 different necklaces, which are then handed over from generation to generation of their respective queens. 200 years later Shamsher Jung attacks and takes over the kingdom of Malwa, forcing Maharaj Dharampal Singh to flee and be eventually be separated from his wife, and two sons, Jay and Vejay. Years later Dharampal is still in hiding away from his wife, Jay has been brought by a bandit named Bhavani Singh, and is now known and feared as Sher Singh, while Vejay is the Senapati of none other than Malwa's Maharaj, Diler Jung, the son of Shamsher. Everyone's path will collide, albeit unknowingly, when they confront each other and race to be the first to take possession of the hidden wealth.",
      "poster_path": "/r3HBzh4RucMle23PjCzgRKGJcQg.jpg"
    },
    {
      "popularity": 0.6,
      "id": 743226,
      "video": false,
      "vote_count": 0,
      "vote_average": 0,
      "title": "Ronan Boyle And The Book Of Riddles",
      "release_date": "",
      "original_language": "en",
      "original_title": "Ronan Boyle And The Book Of Riddles",
      "genre_ids": [
        12,
        14,
        16
      ],
      "backdrop_path": null,
      "adult": false,
      "overview": "Awkward Irish teen Ronan Boyle who lives in the long shadow of his famous parents. When Ronan’s parents are wrongly accused of the theft of a national treasure and sent to jail, Ronan sets out to prove their innocence and face leprechauns, undead goblins and many other legendary creatures of Celtic lore.",
      "poster_path": "/ty4c19tSRlLsEUu5uAdLaH1BVs3.jpg"
    },
    {
      "popularity": 0.6,
      "id": 743146,
      "video": false,
      "vote_count": 0,
      "vote_average": 0,
      "title": "Amazing-man: The First Holy Demon War",
      "release_date": "1988-03-12",
      "original_language": "ja",
      "original_title": "Bikkuriman: daiichiji seima taisen",
      "genre_ids": [
        16,
        28,
        12,
        35,
        14
      ],
      "backdrop_path": null,
      "adult": false,
      "overview": "The first Bikkuriman film, showing how the war between Akuma vs. Tenshi began",
      "poster_path": "/a63ap0aKfWPR9XHlPFYgLko4Q67.jpg"
    },
    {
      "popularity": 0.6,
      "id": 742833,
      "video": false,
      "vote_count": 0,
      "vote_average": 0,
      "title": "O Die Zee",
      "release_date": "2014-12-08",
      "original_language": "en",
      "original_title": "O Die Zee",
      "genre_ids": [
        10402,
        12,
        18
      ],
      "backdrop_path": "/v2bEv36wxrvL2jFIL18e69BvCbJ.jpg",
      "adult": false,
      "overview": "O Die Zee is a modern Dutch retelling Homer's Odyssey in the form of a rock opera. It was performed in the summer of 2014 in the open air of Fort Rammekens, The Netherlands.",
      "poster_path": "/gpsMt83V38JMjZDvCvrX29yBQ9s.jpg"
    },
    {
      "popularity": 0.6,
      "vote_count": 0,
      "video": false,
      "poster_path": "/deKc4D8wy6Vlg2DFBJDuzREZkbP.jpg",
      "id": 742671,
      "adult": false,
      "backdrop_path": null,
      "original_language": "pt",
      "original_title": "Carga Pesada - A Grande Viagem",
      "genre_ids": [
        12,
        35,
        80,
        18
      ],
      "title": "Carga Pesada - A Grande Viagem",
      "vote_average": 0,
      "overview": "",
      "release_date": "2003-05-20"
    },
    {
      "popularity": 0.6,
      "id": 742533,
      "video": false,
      "vote_count": 0,
      "vote_average": 0,
      "title": "El Banat Wel Mercedes",
      "release_date": "1973-01-01",
      "original_language": "ar",
      "original_title": "البنات والمرسيدس",
      "genre_ids": [
        12
      ],
      "backdrop_path": null,
      "adult": false,
      "overview": "Ashraf works for the Baher Tourism Company. After returning from Beirut to buy a brilliant car. It turns out that the car was a smuggler for a gang headed by Murad together with Baher. Baher discovers that the checks that Ashraf signed for the price of the car had been stolen, thus Ashraf becomes its owner. His friends take advantage of the opportunity to pretend each of them in front of his girlfriend to own the car. Baher kidnapped Madiha, Ashraf's fiancée, to pressure him to return checks, thinking that he was hiding them.",
      "poster_path": null
    },
    {
      "popularity": 0.6,
      "id": 742427,
      "video": false,
      "vote_count": 0,
      "vote_average": 0,
      "title": "Samurai Gold",
      "release_date": "1988-07-25",
      "original_language": "ja",
      "original_title": "Tooyama Sakura Uchu Cho: Yatsu no Na wa Gold",
      "genre_ids": [
        16,
        12,
        878
      ],
      "backdrop_path": null,
      "adult": false,
      "overview": "This science-fiction anime was inspired somewhat by the life of Kinshiro Toyama (1793-1855), who was first popularized in the 1893 kabuki play \"Toyama no Kinsan.\"",
      "poster_path": "/rIGYvHGlOoLPgTXNeP7FZC0ZZTd.jpg"
    },
    {
      "popularity": 0.6,
      "vote_count": 0,
      "video": false,
      "poster_path": "/viM2fRBy0dBAo1sZ7rpSg37aSco.jpg",
      "id": 742411,
      "adult": false,
      "backdrop_path": null,
      "original_language": "ru",
      "original_title": "Паруса моего детства",
      "genre_ids": [
        12
      ],
      "title": "Паруса моего детства",
      "vote_average": 0,
      "overview": "",
      "release_date": "1982-05-01"
    },
    {
      "popularity": 0.6,
      "vote_count": 0,
      "video": false,
      "poster_path": null,
      "id": 742081,
      "adult": false,
      "backdrop_path": null,
      "original_language": "ru",
      "original_title": "Ищу вчерашний день",
      "genre_ids": [
        12
      ],
      "title": "Ищу вчерашний день",
      "vote_average": 0,
      "overview": "",
      "release_date": ""
    },
    {
      "popularity": 0.6,
      "vote_count": 0,
      "video": false,
      "poster_path": null,
      "id": 742064,
      "adult": false,
      "backdrop_path": null,
      "original_language": "ru",
      "original_title": "Поезд на Восток",
      "genre_ids": [
        12
      ],
      "title": "Поезд на Восток",
      "vote_average": 0,
      "overview": "",
      "release_date": ""
    },
    {
      "popularity": 0.6,
      "vote_count": 0,
      "video": false,
      "poster_path": null,
      "id": 742052,
      "adult": false,
      "backdrop_path": null,
      "original_language": "ru",
      "original_title": "Календарь ма(й)я",
      "genre_ids": [
        12
      ],
      "title": "Календарь ма(й)я",
      "vote_average": 0,
      "overview": "",
      "release_date": ""
    },
    {
      "popularity": 0.6,
      "id": 742002,
      "video": false,
      "vote_count": 0,
      "vote_average": 0,
      "title": "The Red Pyramid",
      "release_date": "",
      "original_language": "en",
      "original_title": "The Red Pyramid",
      "genre_ids": [
        12,
        14
      ],
      "backdrop_path": null,
      "adult": false,
      "overview": "A feature film based on the series of novels by Rick Riordan",
      "poster_path": null
    },
    {
      "popularity": 0.6,
      "vote_count": 0,
      "video": false,
      "poster_path": "/o6LOTFwPx3c0etsZgK0pI82LJdU.jpg",
      "id": 741783,
      "adult": false,
      "backdrop_path": null,
      "original_language": "es",
      "original_title": "Yolanda: El secreto de la rosa negra",
      "genre_ids": [
        12,
        16,
        10751
      ],
      "title": "Yolanda: El secreto de la rosa negra",
      "vote_average": 0,
      "overview": "",
      "release_date": "2000-03-01"
    },
    {
      "popularity": 0.6,
      "id": 741750,
      "video": false,
      "vote_count": 0,
      "vote_average": 0,
      "title": "Cheshire Crossing",
      "release_date": "",
      "original_language": "en",
      "original_title": "Cheshire Crossing",
      "genre_ids": [
        14,
        12
      ],
      "backdrop_path": null,
      "adult": false,
      "overview": "The story of Dorothy from The Wonderful Wizard of Oz, Alice of Alice's Adventures in Wonderland and Peter Pan's Wendy, who meet in boarding school for troubled young ladies. They each believe they’ve traveled to a fantastical world but no one else does. When their world-hopping sees Captain Hook and the Wicked Witch of the West team up to combine their magical villainy, the trio must band together to thwart them.",
      "poster_path": "/AhQwQ57fMbRxlPsm9mNPKg0oPph.jpg"
    }
  ]
}